…
We have to look at the sample size if the sample size is low then we don't want to trust that data.


{% highlight r %}
recent_grads %>%
  arrange(Sample_size) %>%
  select(Major, Major_category, Median, P25th, P75th, Sample_size)
{% endhighlight %}



{% highlight text %}
## # A tibble: 173 x 6
##    Major            Major_category       Median P25th  P75th Sample_size
##    <chr>            <chr>                 <dbl> <dbl>  <dbl>       <dbl>
##  1 LIBRARY SCIENCE  Education             22000 20000  22000           2
##  2 METALLURGICAL E… Engineering           73000 50000 105000           3
##  3 PHARMACOLOGY     Biology & Life Scie…  45000 40000  45000           3
##  4 SCHOOL STUDENT … Education             41000 41000  43000           4
##  5 MILITARY TECHNO… Industrial Arts & C…  40000 40000  40000           4
##  6 SOIL SCIENCE     Agriculture & Natur…  35000 18500  44000           4
##  7 GEOLOGICAL AND … Engineering           50000 42800  57000           5
##  8 EDUCATIONAL ADM… Education             34000 29000  35000           5
##  9 MINING AND MINE… Engineering           75000 55000  90000           7
## 10 MATHEMATICS AND… Computers & Mathema…  42000 30000  78000           7
## # … with 163 more rows
…
