…
employment_demo
{% endhighlight %}



{% highlight text %}
## # A tibble: 211 x 5
##    occupation                  asian black_or_african_…    women  total
##    <chr>                       <dbl>              <dbl>    <dbl>  <dbl>
##  1 agriculture_and_related_c… -0.625            -0.501  -1.33    -1.98 
##  2 agriculture_and_related_f… -1.05             -1.38   -0.515    0.630
##  3 agriculture_and_related_i… -0.999            -1.44   -1.41    -1.39 
##  4 agriculture_and_related_m… -1.17             -1.87   -0.293    0.662
##  5 agriculture_and_related_m… -1.17             -1.85   -0.302    0.682
##  6 agriculture_and_related_o… -0.753            -1.73    2.28    -0.811
##  7 agriculture_and_related_p… -0.444            -0.0947 -0.631   -1.34 
##  8 agriculture_and_related_p… -0.421            -1.33    0.00826 -1.14 
##  9 agriculture_and_related_p… -1.48             -0.758  -0.846   -1.87 
## 10 agriculture_and_related_s… -1.48             -1.62    0.437   -1.83 
## # … with 201 more rows
…
