Economic Guide to Picking a College Major - A tidy analysis – Data Explained
…
We have to look at the sample size if the sample size is low then we don’t want to trust that data.

recent_grads %>%
  arrange(Sample_size) %>%
  select(Major, Major_category, Median, P25th, P75th, Sample_size)

## # A tibble: 173 x 6
##    Major               Major_category        Median P25th  P75th Sample_size
##    <chr>               <chr>                  <dbl> <dbl>  <dbl>       <dbl>
##  1 LIBRARY SCIENCE     Education              22000 20000  22000           2
##  2 METALLURGICAL ENGI… Engineering            73000 50000 105000           3
##  3 PHARMACOLOGY        Biology & Life Scien…  45000 40000  45000           3
##  4 SCHOOL STUDENT COU… Education              41000 41000  43000           4
##  5 MILITARY TECHNOLOG… Industrial Arts & Co…  40000 40000  40000           4
##  6 SOIL SCIENCE        Agriculture & Natura…  35000 18500  44000           4
##  7 GEOLOGICAL AND GEO… Engineering            50000 42800  57000           5
##  8 EDUCATIONAL ADMINI… Education              34000 29000  35000           5
##  9 MINING AND MINERAL… Engineering            75000 55000  90000           7
## 10 MATHEMATICS AND CO… Computers & Mathemat…  42000 30000  78000           7
## # … with 163 more rows
…
