IKEA Furniture prices- A tidy analysis – Data Explained
…
ikea_df <- ikea %>%
  select(-X1) %>%
  mutate(short_description = str_squish(short_description))

ikea_df <- ikea %>%
  separate(short_description, c("main_description", "rest"),
           sep = ",", 
           extra = "merge",
           fill = "right") %>%
  extract(rest, "numbers", "([\\d\\-xX]+) cm", remove = FALSE)

ikea_df %>%
  count(category, main_description)

## # A tibble: 1,012 x 3
##    category      main_description                      n
##    <chr>         <chr>                             <int>
##  1 Bar furniture Bar stool                             7
##  2 Bar furniture Bar stool with backrest              17
##  3 Bar furniture Bar stool with backrest frame         1
##  4 Bar furniture Bar table                             8
##  5 Bar furniture Bar table and 2 bar stools            6
##  6 Bar furniture Bar table and 4 bar stools            4
##  7 Bar furniture Cover for bar stool with backrest     1
##  8 Bar furniture Stool                                 1
##  9 Bar furniture Table                                 1
## 10 Bar furniture Wall-mounted drop-leaf table          1
## # … with 1,002 more rows
…
